{
  "version": "3.1",
  "log": [
    {
      "Initializable": {
        "inherit": [],
        "libraries": [],
        "linkReferences": [],
        "errors": [],
        "layout": {
          "storage": [
            {
              "contract": "Initializable",
              "label": "_initialized",
              "type": "t_bool",
              "src": "@openzeppelin/contracts-upgradeable/proxy/utils/Initializable.sol:25"
            },
            {
              "contract": "Initializable",
              "label": "_initializing",
              "type": "t_bool",
              "src": "@openzeppelin/contracts-upgradeable/proxy/utils/Initializable.sol:30"
            }
          ],
          "types": {
            "t_bool": {
              "label": "bool"
            }
          },
          "layoutVersion": "1.1"
        }
      },
      "PausableUpgradeable": {
        "inherit": [
          "ContextUpgradeable",
          "Initializable"
        ],
        "libraries": [],
        "linkReferences": [],
        "errors": [],
        "layout": {
          "storage": [
            {
              "contract": "PausableUpgradeable",
              "label": "_paused",
              "type": "t_bool",
              "src": "@openzeppelin/contracts-upgradeable/security/PausableUpgradeable.sol:28"
            },
            {
              "contract": "PausableUpgradeable",
              "label": "__gap",
              "type": "t_array(t_uint256)49_storage",
              "src": "@openzeppelin/contracts-upgradeable/security/PausableUpgradeable.sol:96"
            }
          ],
          "types": {
            "t_bool": {
              "label": "bool"
            },
            "t_array(t_uint256)49_storage": {
              "label": "uint256[49]"
            },
            "t_uint256": {
              "label": "uint256"
            }
          },
          "layoutVersion": "1.1"
        }
      },
      "ERC20Upgradeable": {
        "version": {
          "withMetadata": "7be59a513f220c4d30078857646ad721da36b8a49f01274108e9c4eff576bc79",
          "withoutMetadata": "e179cb265cba6d38bf10f6da908e9f567873a5a933239b27cb690fe8642d7a4e",
          "linkedWithoutMetadata": "e179cb265cba6d38bf10f6da908e9f567873a5a933239b27cb690fe8642d7a4e"
        },
        "inherit": [
          "IERC20Upgradeable",
          "ContextUpgradeable",
          "Initializable"
        ],
        "libraries": [],
        "linkReferences": [],
        "errors": [],
        "layout": {
          "storage": [
            {
              "contract": "ERC20Upgradeable",
              "label": "_balances",
              "type": "t_mapping(t_address,t_uint256)",
              "src": "@openzeppelin/contracts-upgradeable/token/ERC20/ERC20Upgradeable.sol:34"
            },
            {
              "contract": "ERC20Upgradeable",
              "label": "_allowances",
              "type": "t_mapping(t_address,t_mapping(t_address,t_uint256))",
              "src": "@openzeppelin/contracts-upgradeable/token/ERC20/ERC20Upgradeable.sol:36"
            },
            {
              "contract": "ERC20Upgradeable",
              "label": "_totalSupply",
              "type": "t_uint256",
              "src": "@openzeppelin/contracts-upgradeable/token/ERC20/ERC20Upgradeable.sol:38"
            },
            {
              "contract": "ERC20Upgradeable",
              "label": "_name",
              "type": "t_string_storage",
              "src": "@openzeppelin/contracts-upgradeable/token/ERC20/ERC20Upgradeable.sol:40"
            },
            {
              "contract": "ERC20Upgradeable",
              "label": "_symbol",
              "type": "t_string_storage",
              "src": "@openzeppelin/contracts-upgradeable/token/ERC20/ERC20Upgradeable.sol:41"
            },
            {
              "contract": "ERC20Upgradeable",
              "label": "__gap",
              "type": "t_array(t_uint256)45_storage",
              "src": "@openzeppelin/contracts-upgradeable/token/ERC20/ERC20Upgradeable.sol:309"
            }
          ],
          "types": {
            "t_mapping(t_address,t_uint256)": {
              "label": "mapping(address => uint256)"
            },
            "t_address": {
              "label": "address"
            },
            "t_uint256": {
              "label": "uint256"
            },
            "t_mapping(t_address,t_mapping(t_address,t_uint256))": {
              "label": "mapping(address => mapping(address => uint256))"
            },
            "t_string_storage": {
              "label": "string"
            },
            "t_array(t_uint256)45_storage": {
              "label": "uint256[45]"
            }
          },
          "layoutVersion": "1.1"
        }
      },
      "IERC20Upgradeable": {
        "inherit": [],
        "libraries": [],
        "linkReferences": [],
        "errors": [],
        "layout": {
          "storage": [],
          "types": {},
          "layoutVersion": "1.1"
        }
      },
      "ERC20PausableUpgradeable": {
        "inherit": [
          "PausableUpgradeable",
          "ERC20Upgradeable",
          "IERC20Upgradeable",
          "ContextUpgradeable",
          "Initializable"
        ],
        "libraries": [],
        "linkReferences": [],
        "errors": [],
        "layout": {
          "storage": [
            {
              "contract": "ERC20PausableUpgradeable",
              "label": "__gap",
              "type": "t_array(t_uint256)50_storage",
              "src": "@openzeppelin/contracts-upgradeable/token/ERC20/extensions/ERC20PausableUpgradeable.sol:37"
            }
          ],
          "types": {
            "t_array(t_uint256)50_storage": {
              "label": "uint256[50]"
            },
            "t_uint256": {
              "label": "uint256"
            }
          },
          "layoutVersion": "1.1"
        }
      },
      "AddressUpgradeable": {
        "version": {
          "withMetadata": "95b82c0a9fb427aa390c09a048718c2b898c97960fbf1e423440153ca6da1ec5",
          "withoutMetadata": "08d24783a787f8a51dea0c166bb6f91a4f0865e02d03d749f102d332e6ead0ff",
          "linkedWithoutMetadata": "08d24783a787f8a51dea0c166bb6f91a4f0865e02d03d749f102d332e6ead0ff"
        },
        "inherit": [],
        "libraries": [],
        "linkReferences": [],
        "errors": [],
        "layout": {
          "storage": [],
          "types": {},
          "layoutVersion": "1.1"
        }
      },
      "ContextUpgradeable": {
        "inherit": [
          "Initializable"
        ],
        "libraries": [],
        "linkReferences": [],
        "errors": [],
        "layout": {
          "storage": [
            {
              "contract": "ContextUpgradeable",
              "label": "__gap",
              "type": "t_array(t_uint256)50_storage",
              "src": "@openzeppelin/contracts-upgradeable/utils/ContextUpgradeable.sol:31"
            }
          ],
          "types": {
            "t_array(t_uint256)50_storage": {
              "label": "uint256[50]"
            },
            "t_uint256": {
              "label": "uint256"
            }
          },
          "layoutVersion": "1.1"
        }
      },
      "SafeMathUpgradeable": {
        "version": {
          "withMetadata": "ad781e9d4aaee36db4170f7302ed0f3fff0bcde725a2483d01b1ac8296c92454",
          "withoutMetadata": "08d24783a787f8a51dea0c166bb6f91a4f0865e02d03d749f102d332e6ead0ff",
          "linkedWithoutMetadata": "08d24783a787f8a51dea0c166bb6f91a4f0865e02d03d749f102d332e6ead0ff"
        },
        "inherit": [],
        "libraries": [],
        "linkReferences": [],
        "errors": [],
        "layout": {
          "storage": [],
          "types": {},
          "layoutVersion": "1.1"
        }
      },
      "ITokenLocker": {
        "inherit": [],
        "libraries": [],
        "linkReferences": [],
        "errors": [],
        "layout": {
          "storage": [],
          "types": {},
          "layoutVersion": "1.1"
        }
      },
      "LockTokenV5": {
        "version": {
          "withMetadata": "ea0b8e1f21cb1e9f1638b3a064c59aabb91a5fe60b294cd5c7f25f9e908103e1",
          "withoutMetadata": "80ea2865cfc3e464292115ddc146edbac9f6d019e68d7af6922f53b244e77153",
          "linkedWithoutMetadata": "80ea2865cfc3e464292115ddc146edbac9f6d019e68d7af6922f53b244e77153"
        },
        "inherit": [
          "ERC20PausableUpgradeable",
          "PausableUpgradeable",
          "ERC20Upgradeable",
          "IERC20Upgradeable",
          "ContextUpgradeable",
          "Initializable"
        ],
        "libraries": [
          "SafeMathUpgradeable"
        ],
        "linkReferences": [],
        "errors": [],
        "layout": {
          "storage": [
            {
              "contract": "LockTokenV5",
              "label": "_lockAmounts",
              "type": "t_mapping(t_address,t_uint256)",
              "src": "contracts/LockTokenV5.sol:28"
            },
            {
              "contract": "LockTokenV5",
              "label": "_contractAddresses",
              "type": "t_mapping(t_bytes32,t_address)",
              "src": "contracts/LockTokenV5.sol:30"
            }
          ],
          "types": {
            "t_mapping(t_address,t_uint256)": {
              "label": "mapping(address => uint256)"
            },
            "t_address": {
              "label": "address"
            },
            "t_uint256": {
              "label": "uint256"
            },
            "t_mapping(t_bytes32,t_address)": {
              "label": "mapping(bytes32 => address)"
            },
            "t_bytes32": {
              "label": "bytes32"
            }
          },
          "layoutVersion": "1.1"
        }
      }
    },
    {
      "Initializable": {
        "inherit": [],
        "libraries": [],
        "linkReferences": [],
        "errors": [],
        "layout": {
          "storage": [
            {
              "contract": "Initializable",
              "label": "_initialized",
              "type": "t_bool",
              "src": "@openzeppelin/contracts-upgradeable/proxy/utils/Initializable.sol:25"
            },
            {
              "contract": "Initializable",
              "label": "_initializing",
              "type": "t_bool",
              "src": "@openzeppelin/contracts-upgradeable/proxy/utils/Initializable.sol:30"
            }
          ],
          "types": {
            "t_bool": {
              "label": "bool"
            }
          },
          "layoutVersion": "1.1"
        }
      },
      "PausableUpgradeable": {
        "inherit": [
          "ContextUpgradeable",
          "Initializable"
        ],
        "libraries": [],
        "linkReferences": [],
        "errors": [],
        "layout": {
          "storage": [
            {
              "contract": "PausableUpgradeable",
              "label": "_paused",
              "type": "t_bool",
              "src": "@openzeppelin/contracts-upgradeable/security/PausableUpgradeable.sol:28"
            },
            {
              "contract": "PausableUpgradeable",
              "label": "__gap",
              "type": "t_array(t_uint256)49_storage",
              "src": "@openzeppelin/contracts-upgradeable/security/PausableUpgradeable.sol:96"
            }
          ],
          "types": {
            "t_bool": {
              "label": "bool"
            },
            "t_array(t_uint256)49_storage": {
              "label": "uint256[49]"
            },
            "t_uint256": {
              "label": "uint256"
            }
          },
          "layoutVersion": "1.1"
        }
      },
      "ERC20Upgradeable": {
        "version": {
          "withMetadata": "7be59a513f220c4d30078857646ad721da36b8a49f01274108e9c4eff576bc79",
          "withoutMetadata": "e179cb265cba6d38bf10f6da908e9f567873a5a933239b27cb690fe8642d7a4e",
          "linkedWithoutMetadata": "e179cb265cba6d38bf10f6da908e9f567873a5a933239b27cb690fe8642d7a4e"
        },
        "inherit": [
          "IERC20Upgradeable",
          "ContextUpgradeable",
          "Initializable"
        ],
        "libraries": [],
        "linkReferences": [],
        "errors": [],
        "layout": {
          "storage": [
            {
              "contract": "ERC20Upgradeable",
              "label": "_balances",
              "type": "t_mapping(t_address,t_uint256)",
              "src": "@openzeppelin/contracts-upgradeable/token/ERC20/ERC20Upgradeable.sol:34"
            },
            {
              "contract": "ERC20Upgradeable",
              "label": "_allowances",
              "type": "t_mapping(t_address,t_mapping(t_address,t_uint256))",
              "src": "@openzeppelin/contracts-upgradeable/token/ERC20/ERC20Upgradeable.sol:36"
            },
            {
              "contract": "ERC20Upgradeable",
              "label": "_totalSupply",
              "type": "t_uint256",
              "src": "@openzeppelin/contracts-upgradeable/token/ERC20/ERC20Upgradeable.sol:38"
            },
            {
              "contract": "ERC20Upgradeable",
              "label": "_name",
              "type": "t_string_storage",
              "src": "@openzeppelin/contracts-upgradeable/token/ERC20/ERC20Upgradeable.sol:40"
            },
            {
              "contract": "ERC20Upgradeable",
              "label": "_symbol",
              "type": "t_string_storage",
              "src": "@openzeppelin/contracts-upgradeable/token/ERC20/ERC20Upgradeable.sol:41"
            },
            {
              "contract": "ERC20Upgradeable",
              "label": "__gap",
              "type": "t_array(t_uint256)45_storage",
              "src": "@openzeppelin/contracts-upgradeable/token/ERC20/ERC20Upgradeable.sol:309"
            }
          ],
          "types": {
            "t_mapping(t_address,t_uint256)": {
              "label": "mapping(address => uint256)"
            },
            "t_address": {
              "label": "address"
            },
            "t_uint256": {
              "label": "uint256"
            },
            "t_mapping(t_address,t_mapping(t_address,t_uint256))": {
              "label": "mapping(address => mapping(address => uint256))"
            },
            "t_string_storage": {
              "label": "string"
            },
            "t_array(t_uint256)45_storage": {
              "label": "uint256[45]"
            }
          },
          "layoutVersion": "1.1"
        }
      },
      "IERC20Upgradeable": {
        "inherit": [],
        "libraries": [],
        "linkReferences": [],
        "errors": [],
        "layout": {
          "storage": [],
          "types": {},
          "layoutVersion": "1.1"
        }
      },
      "ERC20PausableUpgradeable": {
        "inherit": [
          "PausableUpgradeable",
          "ERC20Upgradeable",
          "IERC20Upgradeable",
          "ContextUpgradeable",
          "Initializable"
        ],
        "libraries": [],
        "linkReferences": [],
        "errors": [],
        "layout": {
          "storage": [
            {
              "contract": "ERC20PausableUpgradeable",
              "label": "__gap",
              "type": "t_array(t_uint256)50_storage",
              "src": "@openzeppelin/contracts-upgradeable/token/ERC20/extensions/ERC20PausableUpgradeable.sol:37"
            }
          ],
          "types": {
            "t_array(t_uint256)50_storage": {
              "label": "uint256[50]"
            },
            "t_uint256": {
              "label": "uint256"
            }
          },
          "layoutVersion": "1.1"
        }
      },
      "AddressUpgradeable": {
        "version": {
          "withMetadata": "95b82c0a9fb427aa390c09a048718c2b898c97960fbf1e423440153ca6da1ec5",
          "withoutMetadata": "08d24783a787f8a51dea0c166bb6f91a4f0865e02d03d749f102d332e6ead0ff",
          "linkedWithoutMetadata": "08d24783a787f8a51dea0c166bb6f91a4f0865e02d03d749f102d332e6ead0ff"
        },
        "inherit": [],
        "libraries": [],
        "linkReferences": [],
        "errors": [],
        "layout": {
          "storage": [],
          "types": {},
          "layoutVersion": "1.1"
        }
      },
      "ContextUpgradeable": {
        "inherit": [
          "Initializable"
        ],
        "libraries": [],
        "linkReferences": [],
        "errors": [],
        "layout": {
          "storage": [
            {
              "contract": "ContextUpgradeable",
              "label": "__gap",
              "type": "t_array(t_uint256)50_storage",
              "src": "@openzeppelin/contracts-upgradeable/utils/ContextUpgradeable.sol:31"
            }
          ],
          "types": {
            "t_array(t_uint256)50_storage": {
              "label": "uint256[50]"
            },
            "t_uint256": {
              "label": "uint256"
            }
          },
          "layoutVersion": "1.1"
        }
      },
      "SafeMathUpgradeable": {
        "version": {
          "withMetadata": "ad781e9d4aaee36db4170f7302ed0f3fff0bcde725a2483d01b1ac8296c92454",
          "withoutMetadata": "08d24783a787f8a51dea0c166bb6f91a4f0865e02d03d749f102d332e6ead0ff",
          "linkedWithoutMetadata": "08d24783a787f8a51dea0c166bb6f91a4f0865e02d03d749f102d332e6ead0ff"
        },
        "inherit": [],
        "libraries": [],
        "linkReferences": [],
        "errors": [],
        "layout": {
          "storage": [],
          "types": {},
          "layoutVersion": "1.1"
        }
      },
      "ITokenLocker": {
        "inherit": [],
        "libraries": [],
        "linkReferences": [],
        "errors": [],
        "layout": {
          "storage": [],
          "types": {},
          "layoutVersion": "1.1"
        }
      },
      "LockTokenV4": {
        "version": {
          "withMetadata": "dae9413153d7c85a27751f6dc2f074af7e86cf7eba797143845f9f17820a768e",
          "withoutMetadata": "e20ae4144ac51a408e244b91da93aa20fc80b556cc6af35e322f4c4bdc4f5f9e",
          "linkedWithoutMetadata": "e20ae4144ac51a408e244b91da93aa20fc80b556cc6af35e322f4c4bdc4f5f9e"
        },
        "inherit": [
          "ERC20PausableUpgradeable",
          "PausableUpgradeable",
          "ERC20Upgradeable",
          "IERC20Upgradeable",
          "ContextUpgradeable",
          "Initializable"
        ],
        "libraries": [
          "SafeMathUpgradeable"
        ],
        "linkReferences": [],
        "errors": [],
        "layout": {
          "storage": [
            {
              "contract": "LockTokenV4",
              "label": "_lockAmounts",
              "type": "t_mapping(t_address,t_uint256)",
              "src": "contracts/LockTokenV4.sol:28"
            },
            {
              "contract": "LockTokenV4",
              "label": "_contractAddresses",
              "type": "t_mapping(t_bytes32,t_address)",
              "src": "contracts/LockTokenV4.sol:30"
            }
          ],
          "types": {
            "t_mapping(t_address,t_uint256)": {
              "label": "mapping(address => uint256)"
            },
            "t_address": {
              "label": "address"
            },
            "t_uint256": {
              "label": "uint256"
            },
            "t_mapping(t_bytes32,t_address)": {
              "label": "mapping(bytes32 => address)"
            },
            "t_bytes32": {
              "label": "bytes32"
            }
          },
          "layoutVersion": "1.1"
        }
      }
    },
    {
      "Initializable": {
        "inherit": [],
        "libraries": [],
        "linkReferences": [],
        "errors": [],
        "layout": {
          "storage": [
            {
              "contract": "Initializable",
              "label": "_initialized",
              "type": "t_bool",
              "src": "@openzeppelin/contracts-upgradeable/proxy/utils/Initializable.sol:25"
            },
            {
              "contract": "Initializable",
              "label": "_initializing",
              "type": "t_bool",
              "src": "@openzeppelin/contracts-upgradeable/proxy/utils/Initializable.sol:30"
            }
          ],
          "types": {
            "t_bool": {
              "label": "bool"
            }
          },
          "layoutVersion": "1.1"
        }
      },
      "PausableUpgradeable": {
        "inherit": [
          "ContextUpgradeable",
          "Initializable"
        ],
        "libraries": [],
        "linkReferences": [],
        "errors": [],
        "layout": {
          "storage": [
            {
              "contract": "PausableUpgradeable",
              "label": "_paused",
              "type": "t_bool",
              "src": "@openzeppelin/contracts-upgradeable/security/PausableUpgradeable.sol:28"
            },
            {
              "contract": "PausableUpgradeable",
              "label": "__gap",
              "type": "t_array(t_uint256)49_storage",
              "src": "@openzeppelin/contracts-upgradeable/security/PausableUpgradeable.sol:96"
            }
          ],
          "types": {
            "t_bool": {
              "label": "bool"
            },
            "t_array(t_uint256)49_storage": {
              "label": "uint256[49]"
            },
            "t_uint256": {
              "label": "uint256"
            }
          },
          "layoutVersion": "1.1"
        }
      },
      "ERC20Upgradeable": {
        "version": {
          "withMetadata": "7be59a513f220c4d30078857646ad721da36b8a49f01274108e9c4eff576bc79",
          "withoutMetadata": "e179cb265cba6d38bf10f6da908e9f567873a5a933239b27cb690fe8642d7a4e",
          "linkedWithoutMetadata": "e179cb265cba6d38bf10f6da908e9f567873a5a933239b27cb690fe8642d7a4e"
        },
        "inherit": [
          "IERC20Upgradeable",
          "ContextUpgradeable",
          "Initializable"
        ],
        "libraries": [],
        "linkReferences": [],
        "errors": [],
        "layout": {
          "storage": [
            {
              "contract": "ERC20Upgradeable",
              "label": "_balances",
              "type": "t_mapping(t_address,t_uint256)",
              "src": "@openzeppelin/contracts-upgradeable/token/ERC20/ERC20Upgradeable.sol:34"
            },
            {
              "contract": "ERC20Upgradeable",
              "label": "_allowances",
              "type": "t_mapping(t_address,t_mapping(t_address,t_uint256))",
              "src": "@openzeppelin/contracts-upgradeable/token/ERC20/ERC20Upgradeable.sol:36"
            },
            {
              "contract": "ERC20Upgradeable",
              "label": "_totalSupply",
              "type": "t_uint256",
              "src": "@openzeppelin/contracts-upgradeable/token/ERC20/ERC20Upgradeable.sol:38"
            },
            {
              "contract": "ERC20Upgradeable",
              "label": "_name",
              "type": "t_string_storage",
              "src": "@openzeppelin/contracts-upgradeable/token/ERC20/ERC20Upgradeable.sol:40"
            },
            {
              "contract": "ERC20Upgradeable",
              "label": "_symbol",
              "type": "t_string_storage",
              "src": "@openzeppelin/contracts-upgradeable/token/ERC20/ERC20Upgradeable.sol:41"
            },
            {
              "contract": "ERC20Upgradeable",
              "label": "__gap",
              "type": "t_array(t_uint256)45_storage",
              "src": "@openzeppelin/contracts-upgradeable/token/ERC20/ERC20Upgradeable.sol:309"
            }
          ],
          "types": {
            "t_mapping(t_address,t_uint256)": {
              "label": "mapping(address => uint256)"
            },
            "t_address": {
              "label": "address"
            },
            "t_uint256": {
              "label": "uint256"
            },
            "t_mapping(t_address,t_mapping(t_address,t_uint256))": {
              "label": "mapping(address => mapping(address => uint256))"
            },
            "t_string_storage": {
              "label": "string"
            },
            "t_array(t_uint256)45_storage": {
              "label": "uint256[45]"
            }
          },
          "layoutVersion": "1.1"
        }
      },
      "IERC20Upgradeable": {
        "inherit": [],
        "libraries": [],
        "linkReferences": [],
        "errors": [],
        "layout": {
          "storage": [],
          "types": {},
          "layoutVersion": "1.1"
        }
      },
      "ERC20PausableUpgradeable": {
        "inherit": [
          "PausableUpgradeable",
          "ERC20Upgradeable",
          "IERC20Upgradeable",
          "ContextUpgradeable",
          "Initializable"
        ],
        "libraries": [],
        "linkReferences": [],
        "errors": [],
        "layout": {
          "storage": [
            {
              "contract": "ERC20PausableUpgradeable",
              "label": "__gap",
              "type": "t_array(t_uint256)50_storage",
              "src": "@openzeppelin/contracts-upgradeable/token/ERC20/extensions/ERC20PausableUpgradeable.sol:37"
            }
          ],
          "types": {
            "t_array(t_uint256)50_storage": {
              "label": "uint256[50]"
            },
            "t_uint256": {
              "label": "uint256"
            }
          },
          "layoutVersion": "1.1"
        }
      },
      "AddressUpgradeable": {
        "version": {
          "withMetadata": "95b82c0a9fb427aa390c09a048718c2b898c97960fbf1e423440153ca6da1ec5",
          "withoutMetadata": "08d24783a787f8a51dea0c166bb6f91a4f0865e02d03d749f102d332e6ead0ff",
          "linkedWithoutMetadata": "08d24783a787f8a51dea0c166bb6f91a4f0865e02d03d749f102d332e6ead0ff"
        },
        "inherit": [],
        "libraries": [],
        "linkReferences": [],
        "errors": [],
        "layout": {
          "storage": [],
          "types": {},
          "layoutVersion": "1.1"
        }
      },
      "ContextUpgradeable": {
        "inherit": [
          "Initializable"
        ],
        "libraries": [],
        "linkReferences": [],
        "errors": [],
        "layout": {
          "storage": [
            {
              "contract": "ContextUpgradeable",
              "label": "__gap",
              "type": "t_array(t_uint256)50_storage",
              "src": "@openzeppelin/contracts-upgradeable/utils/ContextUpgradeable.sol:31"
            }
          ],
          "types": {
            "t_array(t_uint256)50_storage": {
              "label": "uint256[50]"
            },
            "t_uint256": {
              "label": "uint256"
            }
          },
          "layoutVersion": "1.1"
        }
      },
      "SafeMathUpgradeable": {
        "version": {
          "withMetadata": "ad781e9d4aaee36db4170f7302ed0f3fff0bcde725a2483d01b1ac8296c92454",
          "withoutMetadata": "08d24783a787f8a51dea0c166bb6f91a4f0865e02d03d749f102d332e6ead0ff",
          "linkedWithoutMetadata": "08d24783a787f8a51dea0c166bb6f91a4f0865e02d03d749f102d332e6ead0ff"
        },
        "inherit": [],
        "libraries": [],
        "linkReferences": [],
        "errors": [],
        "layout": {
          "storage": [],
          "types": {},
          "layoutVersion": "1.1"
        }
      },
      "Ownable": {
        "inherit": [
          "Context"
        ],
        "libraries": [],
        "linkReferences": [],
        "errors": [
          {
            "kind": "constructor",
            "contract": "Ownable",
            "src": "@openzeppelin/contracts/access/Ownable.sol:26"
          }
        ],
        "layout": {
          "storage": [
            {
              "contract": "Ownable",
              "label": "_owner",
              "type": "t_address",
              "src": "@openzeppelin/contracts/access/Ownable.sol:19"
            }
          ],
          "types": {
            "t_address": {
              "label": "address"
            }
          },
          "layoutVersion": "1.1"
        }
      },
      "Context": {
        "inherit": [],
        "libraries": [],
        "linkReferences": [],
        "errors": [],
        "layout": {
          "storage": [],
          "types": {},
          "layoutVersion": "1.1"
        }
      },
      "SafeMath": {
        "version": {
          "withMetadata": "17d898217ca766762ac410a48231e1b0f20473007354ba9f15b3f3262f2741f3",
          "withoutMetadata": "08d24783a787f8a51dea0c166bb6f91a4f0865e02d03d749f102d332e6ead0ff",
          "linkedWithoutMetadata": "08d24783a787f8a51dea0c166bb6f91a4f0865e02d03d749f102d332e6ead0ff"
        },
        "inherit": [],
        "libraries": [],
        "linkReferences": [],
        "errors": [],
        "layout": {
          "storage": [],
          "types": {},
          "layoutVersion": "1.1"
        }
      },
      "ITokenLocker": {
        "inherit": [],
        "libraries": [],
        "linkReferences": [],
        "errors": [],
        "layout": {
          "storage": [],
          "types": {},
          "layoutVersion": "1.1"
        }
      },
      "LockTokenV4": {
        "version": {
          "withMetadata": "a41e2690285ee212b53914626ad60ea794af4cdee0b6cccb5ed444a0384b8963",
          "withoutMetadata": "ca2d2c15512f5ade690fca9f17f4291b35f094db3d58505f7234973ffa49205b",
          "linkedWithoutMetadata": "ca2d2c15512f5ade690fca9f17f4291b35f094db3d58505f7234973ffa49205b"
        },
        "inherit": [
          "ERC20PausableUpgradeable",
          "PausableUpgradeable",
          "ERC20Upgradeable",
          "IERC20Upgradeable",
          "ContextUpgradeable",
          "Initializable"
        ],
        "libraries": [
          "SafeMathUpgradeable"
        ],
        "linkReferences": [],
        "errors": [],
        "layout": {
          "storage": [
            {
              "contract": "LockTokenV4",
              "label": "_contractAddresses",
              "type": "t_mapping(t_bytes32,t_address)",
              "src": "contracts/LockTokenV4.sol:28"
            }
          ],
          "types": {
            "t_mapping(t_bytes32,t_address)": {
              "label": "mapping(bytes32 => address)"
            },
            "t_bytes32": {
              "label": "bytes32"
            },
            "t_address": {
              "label": "address"
            }
          },
          "layoutVersion": "1.1"
        }
      },
      "TokenLocker": {
        "version": {
          "withMetadata": "1a28d5b98f1d68d324afc029c9bd27161c5459cc1b816e27e70267abce73a25f",
          "withoutMetadata": "0c214b4786e5c933c232ba1871c2779a6cc96164db301c56a172d574cdbc1624",
          "linkedWithoutMetadata": "0c214b4786e5c933c232ba1871c2779a6cc96164db301c56a172d574cdbc1624"
        },
        "inherit": [
          "Ownable",
          "Context"
        ],
        "libraries": [
          "SafeMath"
        ],
        "linkReferences": [],
        "errors": [
          {
            "kind": "constructor",
            "contract": "TokenLocker",
            "src": "contracts/TokenLocker.sol:30"
          }
        ],
        "layout": {
          "storage": [
            {
              "contract": "TokenLocker",
              "label": "lockStates",
              "type": "t_mapping(t_address,t_struct(LockState)2053_storage)",
              "src": "contracts/TokenLocker.sol:19"
            }
          ],
          "types": {
            "t_mapping(t_address,t_struct(LockState)2053_storage)": {
              "label": "mapping(address => struct TokenLocker.LockState)"
            },
            "t_address": {
              "label": "address"
            },
            "t_struct(LockState)2053_storage": {
              "label": "struct TokenLocker.LockState",
              "members": [
                {
                  "label": "account",
                  "type": "t_address"
                },
                {
                  "label": "startTime",
                  "type": "t_uint256"
                },
                {
                  "label": "iterations",
                  "type": "t_uint256"
                },
                {
                  "label": "totalAmount",
                  "type": "t_uint256"
                },
                {
                  "label": "eachLockPeriod",
                  "type": "t_uint256"
                },
                {
                  "label": "endTime",
                  "type": "t_uint256"
                }
              ]
            },
            "t_uint256": {
              "label": "uint256"
            }
          },
          "layoutVersion": "1.1"
        }
      }
    },
    {
      "Initializable": {
        "inherit": [],
        "libraries": [],
        "linkReferences": [],
        "errors": [],
        "layout": {
          "storage": [
            {
              "contract": "Initializable",
              "label": "_initialized",
              "type": "t_bool",
              "src": "@openzeppelin/contracts-upgradeable/proxy/utils/Initializable.sol:25"
            },
            {
              "contract": "Initializable",
              "label": "_initializing",
              "type": "t_bool",
              "src": "@openzeppelin/contracts-upgradeable/proxy/utils/Initializable.sol:30"
            }
          ],
          "types": {
            "t_bool": {
              "label": "bool"
            }
          },
          "layoutVersion": "1.1"
        }
      },
      "PausableUpgradeable": {
        "inherit": [
          "ContextUpgradeable",
          "Initializable"
        ],
        "libraries": [],
        "linkReferences": [],
        "errors": [],
        "layout": {
          "storage": [
            {
              "contract": "PausableUpgradeable",
              "label": "_paused",
              "type": "t_bool",
              "src": "@openzeppelin/contracts-upgradeable/security/PausableUpgradeable.sol:28"
            },
            {
              "contract": "PausableUpgradeable",
              "label": "__gap",
              "type": "t_array(t_uint256)49_storage",
              "src": "@openzeppelin/contracts-upgradeable/security/PausableUpgradeable.sol:96"
            }
          ],
          "types": {
            "t_bool": {
              "label": "bool"
            },
            "t_array(t_uint256)49_storage": {
              "label": "uint256[49]"
            },
            "t_uint256": {
              "label": "uint256"
            }
          },
          "layoutVersion": "1.1"
        }
      },
      "ERC20Upgradeable": {
        "version": {
          "withMetadata": "7be59a513f220c4d30078857646ad721da36b8a49f01274108e9c4eff576bc79",
          "withoutMetadata": "e179cb265cba6d38bf10f6da908e9f567873a5a933239b27cb690fe8642d7a4e",
          "linkedWithoutMetadata": "e179cb265cba6d38bf10f6da908e9f567873a5a933239b27cb690fe8642d7a4e"
        },
        "inherit": [
          "IERC20Upgradeable",
          "ContextUpgradeable",
          "Initializable"
        ],
        "libraries": [],
        "linkReferences": [],
        "errors": [],
        "layout": {
          "storage": [
            {
              "contract": "ERC20Upgradeable",
              "label": "_balances",
              "type": "t_mapping(t_address,t_uint256)",
              "src": "@openzeppelin/contracts-upgradeable/token/ERC20/ERC20Upgradeable.sol:34"
            },
            {
              "contract": "ERC20Upgradeable",
              "label": "_allowances",
              "type": "t_mapping(t_address,t_mapping(t_address,t_uint256))",
              "src": "@openzeppelin/contracts-upgradeable/token/ERC20/ERC20Upgradeable.sol:36"
            },
            {
              "contract": "ERC20Upgradeable",
              "label": "_totalSupply",
              "type": "t_uint256",
              "src": "@openzeppelin/contracts-upgradeable/token/ERC20/ERC20Upgradeable.sol:38"
            },
            {
              "contract": "ERC20Upgradeable",
              "label": "_name",
              "type": "t_string_storage",
              "src": "@openzeppelin/contracts-upgradeable/token/ERC20/ERC20Upgradeable.sol:40"
            },
            {
              "contract": "ERC20Upgradeable",
              "label": "_symbol",
              "type": "t_string_storage",
              "src": "@openzeppelin/contracts-upgradeable/token/ERC20/ERC20Upgradeable.sol:41"
            },
            {
              "contract": "ERC20Upgradeable",
              "label": "__gap",
              "type": "t_array(t_uint256)45_storage",
              "src": "@openzeppelin/contracts-upgradeable/token/ERC20/ERC20Upgradeable.sol:309"
            }
          ],
          "types": {
            "t_mapping(t_address,t_uint256)": {
              "label": "mapping(address => uint256)"
            },
            "t_address": {
              "label": "address"
            },
            "t_uint256": {
              "label": "uint256"
            },
            "t_mapping(t_address,t_mapping(t_address,t_uint256))": {
              "label": "mapping(address => mapping(address => uint256))"
            },
            "t_string_storage": {
              "label": "string"
            },
            "t_array(t_uint256)45_storage": {
              "label": "uint256[45]"
            }
          },
          "layoutVersion": "1.1"
        }
      },
      "IERC20Upgradeable": {
        "inherit": [],
        "libraries": [],
        "linkReferences": [],
        "errors": [],
        "layout": {
          "storage": [],
          "types": {},
          "layoutVersion": "1.1"
        }
      },
      "ERC20PausableUpgradeable": {
        "inherit": [
          "PausableUpgradeable",
          "ERC20Upgradeable",
          "IERC20Upgradeable",
          "ContextUpgradeable",
          "Initializable"
        ],
        "libraries": [],
        "linkReferences": [],
        "errors": [],
        "layout": {
          "storage": [
            {
              "contract": "ERC20PausableUpgradeable",
              "label": "__gap",
              "type": "t_array(t_uint256)50_storage",
              "src": "@openzeppelin/contracts-upgradeable/token/ERC20/extensions/ERC20PausableUpgradeable.sol:37"
            }
          ],
          "types": {
            "t_array(t_uint256)50_storage": {
              "label": "uint256[50]"
            },
            "t_uint256": {
              "label": "uint256"
            }
          },
          "layoutVersion": "1.1"
        }
      },
      "AddressUpgradeable": {
        "version": {
          "withMetadata": "95b82c0a9fb427aa390c09a048718c2b898c97960fbf1e423440153ca6da1ec5",
          "withoutMetadata": "08d24783a787f8a51dea0c166bb6f91a4f0865e02d03d749f102d332e6ead0ff",
          "linkedWithoutMetadata": "08d24783a787f8a51dea0c166bb6f91a4f0865e02d03d749f102d332e6ead0ff"
        },
        "inherit": [],
        "libraries": [],
        "linkReferences": [],
        "errors": [],
        "layout": {
          "storage": [],
          "types": {},
          "layoutVersion": "1.1"
        }
      },
      "ContextUpgradeable": {
        "inherit": [
          "Initializable"
        ],
        "libraries": [],
        "linkReferences": [],
        "errors": [],
        "layout": {
          "storage": [
            {
              "contract": "ContextUpgradeable",
              "label": "__gap",
              "type": "t_array(t_uint256)50_storage",
              "src": "@openzeppelin/contracts-upgradeable/utils/ContextUpgradeable.sol:31"
            }
          ],
          "types": {
            "t_array(t_uint256)50_storage": {
              "label": "uint256[50]"
            },
            "t_uint256": {
              "label": "uint256"
            }
          },
          "layoutVersion": "1.1"
        }
      },
      "SafeMathUpgradeable": {
        "version": {
          "withMetadata": "ad781e9d4aaee36db4170f7302ed0f3fff0bcde725a2483d01b1ac8296c92454",
          "withoutMetadata": "08d24783a787f8a51dea0c166bb6f91a4f0865e02d03d749f102d332e6ead0ff",
          "linkedWithoutMetadata": "08d24783a787f8a51dea0c166bb6f91a4f0865e02d03d749f102d332e6ead0ff"
        },
        "inherit": [],
        "libraries": [],
        "linkReferences": [],
        "errors": [],
        "layout": {
          "storage": [],
          "types": {},
          "layoutVersion": "1.1"
        }
      },
      "LockTokenV3": {
        "version": {
          "withMetadata": "3eb12ca66102584e5e3e4e93b76b5a151d77ab290104e9aa42ba5324b2cb79ea",
          "withoutMetadata": "3f36b4cceebd24a60ee2db1f438049105f55fc152275006c09f4c15f9baf470d",
          "linkedWithoutMetadata": "3f36b4cceebd24a60ee2db1f438049105f55fc152275006c09f4c15f9baf470d"
        },
        "inherit": [
          "ERC20PausableUpgradeable",
          "PausableUpgradeable",
          "ERC20Upgradeable",
          "IERC20Upgradeable",
          "ContextUpgradeable",
          "Initializable"
        ],
        "libraries": [
          "SafeMathUpgradeable"
        ],
        "linkReferences": [],
        "errors": [],
        "layout": {
          "storage": [
            {
              "contract": "LockTokenV3",
              "label": "_lockAmounts",
              "type": "t_mapping(t_address,t_uint256)",
              "src": "contracts/LockTokenV3.sol:10"
            }
          ],
          "types": {
            "t_mapping(t_address,t_uint256)": {
              "label": "mapping(address => uint256)"
            },
            "t_address": {
              "label": "address"
            },
            "t_uint256": {
              "label": "uint256"
            }
          },
          "layoutVersion": "1.1"
        }
      }
    },
    {
      "Initializable": {
        "inherit": [],
        "libraries": [],
        "linkReferences": [],
        "errors": [],
        "layout": {
          "storage": [
            {
              "contract": "Initializable",
              "label": "_initialized",
              "type": "t_bool",
              "src": "@openzeppelin/contracts-upgradeable/proxy/utils/Initializable.sol:25"
            },
            {
              "contract": "Initializable",
              "label": "_initializing",
              "type": "t_bool",
              "src": "@openzeppelin/contracts-upgradeable/proxy/utils/Initializable.sol:30"
            }
          ],
          "types": {
            "t_bool": {
              "label": "bool"
            }
          },
          "layoutVersion": "1.1"
        }
      },
      "PausableUpgradeable": {
        "inherit": [
          "ContextUpgradeable",
          "Initializable"
        ],
        "libraries": [],
        "linkReferences": [],
        "errors": [],
        "layout": {
          "storage": [
            {
              "contract": "PausableUpgradeable",
              "label": "_paused",
              "type": "t_bool",
              "src": "@openzeppelin/contracts-upgradeable/security/PausableUpgradeable.sol:28"
            },
            {
              "contract": "PausableUpgradeable",
              "label": "__gap",
              "type": "t_array(t_uint256)49_storage",
              "src": "@openzeppelin/contracts-upgradeable/security/PausableUpgradeable.sol:96"
            }
          ],
          "types": {
            "t_bool": {
              "label": "bool"
            },
            "t_array(t_uint256)49_storage": {
              "label": "uint256[49]"
            },
            "t_uint256": {
              "label": "uint256"
            }
          },
          "layoutVersion": "1.1"
        }
      },
      "ERC20Upgradeable": {
        "version": {
          "withMetadata": "7be59a513f220c4d30078857646ad721da36b8a49f01274108e9c4eff576bc79",
          "withoutMetadata": "e179cb265cba6d38bf10f6da908e9f567873a5a933239b27cb690fe8642d7a4e",
          "linkedWithoutMetadata": "e179cb265cba6d38bf10f6da908e9f567873a5a933239b27cb690fe8642d7a4e"
        },
        "inherit": [
          "IERC20Upgradeable",
          "ContextUpgradeable",
          "Initializable"
        ],
        "libraries": [],
        "linkReferences": [],
        "errors": [],
        "layout": {
          "storage": [
            {
              "contract": "ERC20Upgradeable",
              "label": "_balances",
              "type": "t_mapping(t_address,t_uint256)",
              "src": "@openzeppelin/contracts-upgradeable/token/ERC20/ERC20Upgradeable.sol:34"
            },
            {
              "contract": "ERC20Upgradeable",
              "label": "_allowances",
              "type": "t_mapping(t_address,t_mapping(t_address,t_uint256))",
              "src": "@openzeppelin/contracts-upgradeable/token/ERC20/ERC20Upgradeable.sol:36"
            },
            {
              "contract": "ERC20Upgradeable",
              "label": "_totalSupply",
              "type": "t_uint256",
              "src": "@openzeppelin/contracts-upgradeable/token/ERC20/ERC20Upgradeable.sol:38"
            },
            {
              "contract": "ERC20Upgradeable",
              "label": "_name",
              "type": "t_string_storage",
              "src": "@openzeppelin/contracts-upgradeable/token/ERC20/ERC20Upgradeable.sol:40"
            },
            {
              "contract": "ERC20Upgradeable",
              "label": "_symbol",
              "type": "t_string_storage",
              "src": "@openzeppelin/contracts-upgradeable/token/ERC20/ERC20Upgradeable.sol:41"
            },
            {
              "contract": "ERC20Upgradeable",
              "label": "__gap",
              "type": "t_array(t_uint256)45_storage",
              "src": "@openzeppelin/contracts-upgradeable/token/ERC20/ERC20Upgradeable.sol:309"
            }
          ],
          "types": {
            "t_mapping(t_address,t_uint256)": {
              "label": "mapping(address => uint256)"
            },
            "t_address": {
              "label": "address"
            },
            "t_uint256": {
              "label": "uint256"
            },
            "t_mapping(t_address,t_mapping(t_address,t_uint256))": {
              "label": "mapping(address => mapping(address => uint256))"
            },
            "t_string_storage": {
              "label": "string"
            },
            "t_array(t_uint256)45_storage": {
              "label": "uint256[45]"
            }
          },
          "layoutVersion": "1.1"
        }
      },
      "IERC20Upgradeable": {
        "inherit": [],
        "libraries": [],
        "linkReferences": [],
        "errors": [],
        "layout": {
          "storage": [],
          "types": {},
          "layoutVersion": "1.1"
        }
      },
      "ERC20PausableUpgradeable": {
        "inherit": [
          "PausableUpgradeable",
          "ERC20Upgradeable",
          "IERC20Upgradeable",
          "ContextUpgradeable",
          "Initializable"
        ],
        "libraries": [],
        "linkReferences": [],
        "errors": [],
        "layout": {
          "storage": [
            {
              "contract": "ERC20PausableUpgradeable",
              "label": "__gap",
              "type": "t_array(t_uint256)50_storage",
              "src": "@openzeppelin/contracts-upgradeable/token/ERC20/extensions/ERC20PausableUpgradeable.sol:37"
            }
          ],
          "types": {
            "t_array(t_uint256)50_storage": {
              "label": "uint256[50]"
            },
            "t_uint256": {
              "label": "uint256"
            }
          },
          "layoutVersion": "1.1"
        }
      },
      "AddressUpgradeable": {
        "version": {
          "withMetadata": "95b82c0a9fb427aa390c09a048718c2b898c97960fbf1e423440153ca6da1ec5",
          "withoutMetadata": "08d24783a787f8a51dea0c166bb6f91a4f0865e02d03d749f102d332e6ead0ff",
          "linkedWithoutMetadata": "08d24783a787f8a51dea0c166bb6f91a4f0865e02d03d749f102d332e6ead0ff"
        },
        "inherit": [],
        "libraries": [],
        "linkReferences": [],
        "errors": [],
        "layout": {
          "storage": [],
          "types": {},
          "layoutVersion": "1.1"
        }
      },
      "ContextUpgradeable": {
        "inherit": [
          "Initializable"
        ],
        "libraries": [],
        "linkReferences": [],
        "errors": [],
        "layout": {
          "storage": [
            {
              "contract": "ContextUpgradeable",
              "label": "__gap",
              "type": "t_array(t_uint256)50_storage",
              "src": "@openzeppelin/contracts-upgradeable/utils/ContextUpgradeable.sol:31"
            }
          ],
          "types": {
            "t_array(t_uint256)50_storage": {
              "label": "uint256[50]"
            },
            "t_uint256": {
              "label": "uint256"
            }
          },
          "layoutVersion": "1.1"
        }
      },
      "SafeMathUpgradeable": {
        "version": {
          "withMetadata": "ad781e9d4aaee36db4170f7302ed0f3fff0bcde725a2483d01b1ac8296c92454",
          "withoutMetadata": "08d24783a787f8a51dea0c166bb6f91a4f0865e02d03d749f102d332e6ead0ff",
          "linkedWithoutMetadata": "08d24783a787f8a51dea0c166bb6f91a4f0865e02d03d749f102d332e6ead0ff"
        },
        "inherit": [],
        "libraries": [],
        "linkReferences": [],
        "errors": [],
        "layout": {
          "storage": [],
          "types": {},
          "layoutVersion": "1.1"
        }
      },
      "LockTokenV2": {
        "version": {
          "withMetadata": "3d373b54b1c8bc3593618cf82ed5e88b856fbe791a6da656af9414c8ce585c51",
          "withoutMetadata": "3f36b4cceebd24a60ee2db1f438049105f55fc152275006c09f4c15f9baf470d",
          "linkedWithoutMetadata": "3f36b4cceebd24a60ee2db1f438049105f55fc152275006c09f4c15f9baf470d"
        },
        "inherit": [
          "ERC20PausableUpgradeable",
          "PausableUpgradeable",
          "ERC20Upgradeable",
          "IERC20Upgradeable",
          "ContextUpgradeable",
          "Initializable"
        ],
        "libraries": [
          "SafeMathUpgradeable"
        ],
        "linkReferences": [],
        "errors": [],
        "layout": {
          "storage": [
            {
              "contract": "LockTokenV2",
              "label": "_lockAmounts",
              "type": "t_mapping(t_address,t_uint256)",
              "src": "contracts/LockTokenV3.sol:10"
            }
          ],
          "types": {
            "t_mapping(t_address,t_uint256)": {
              "label": "mapping(address => uint256)"
            },
            "t_address": {
              "label": "address"
            },
            "t_uint256": {
              "label": "uint256"
            }
          },
          "layoutVersion": "1.1"
        }
      }
    },
    {
      "Initializable": {
        "inherit": [],
        "libraries": [],
        "linkReferences": [],
        "errors": [],
        "layout": {
          "storage": [
            {
              "contract": "Initializable",
              "label": "_initialized",
              "type": "t_bool",
              "src": "@openzeppelin/contracts-upgradeable/proxy/utils/Initializable.sol:25"
            },
            {
              "contract": "Initializable",
              "label": "_initializing",
              "type": "t_bool",
              "src": "@openzeppelin/contracts-upgradeable/proxy/utils/Initializable.sol:30"
            }
          ],
          "types": {
            "t_bool": {
              "label": "bool"
            }
          },
          "layoutVersion": "1.1"
        }
      },
      "PausableUpgradeable": {
        "inherit": [
          "ContextUpgradeable",
          "Initializable"
        ],
        "libraries": [],
        "linkReferences": [],
        "errors": [],
        "layout": {
          "storage": [
            {
              "contract": "PausableUpgradeable",
              "label": "_paused",
              "type": "t_bool",
              "src": "@openzeppelin/contracts-upgradeable/security/PausableUpgradeable.sol:28"
            },
            {
              "contract": "PausableUpgradeable",
              "label": "__gap",
              "type": "t_array(t_uint256)49_storage",
              "src": "@openzeppelin/contracts-upgradeable/security/PausableUpgradeable.sol:96"
            }
          ],
          "types": {
            "t_bool": {
              "label": "bool"
            },
            "t_array(t_uint256)49_storage": {
              "label": "uint256[49]"
            },
            "t_uint256": {
              "label": "uint256"
            }
          },
          "layoutVersion": "1.1"
        }
      },
      "ERC20Upgradeable": {
        "version": {
          "withMetadata": "7be59a513f220c4d30078857646ad721da36b8a49f01274108e9c4eff576bc79",
          "withoutMetadata": "e179cb265cba6d38bf10f6da908e9f567873a5a933239b27cb690fe8642d7a4e",
          "linkedWithoutMetadata": "e179cb265cba6d38bf10f6da908e9f567873a5a933239b27cb690fe8642d7a4e"
        },
        "inherit": [
          "IERC20Upgradeable",
          "ContextUpgradeable",
          "Initializable"
        ],
        "libraries": [],
        "linkReferences": [],
        "errors": [],
        "layout": {
          "storage": [
            {
              "contract": "ERC20Upgradeable",
              "label": "_balances",
              "type": "t_mapping(t_address,t_uint256)",
              "src": "@openzeppelin/contracts-upgradeable/token/ERC20/ERC20Upgradeable.sol:34"
            },
            {
              "contract": "ERC20Upgradeable",
              "label": "_allowances",
              "type": "t_mapping(t_address,t_mapping(t_address,t_uint256))",
              "src": "@openzeppelin/contracts-upgradeable/token/ERC20/ERC20Upgradeable.sol:36"
            },
            {
              "contract": "ERC20Upgradeable",
              "label": "_totalSupply",
              "type": "t_uint256",
              "src": "@openzeppelin/contracts-upgradeable/token/ERC20/ERC20Upgradeable.sol:38"
            },
            {
              "contract": "ERC20Upgradeable",
              "label": "_name",
              "type": "t_string_storage",
              "src": "@openzeppelin/contracts-upgradeable/token/ERC20/ERC20Upgradeable.sol:40"
            },
            {
              "contract": "ERC20Upgradeable",
              "label": "_symbol",
              "type": "t_string_storage",
              "src": "@openzeppelin/contracts-upgradeable/token/ERC20/ERC20Upgradeable.sol:41"
            },
            {
              "contract": "ERC20Upgradeable",
              "label": "__gap",
              "type": "t_array(t_uint256)45_storage",
              "src": "@openzeppelin/contracts-upgradeable/token/ERC20/ERC20Upgradeable.sol:309"
            }
          ],
          "types": {
            "t_mapping(t_address,t_uint256)": {
              "label": "mapping(address => uint256)"
            },
            "t_address": {
              "label": "address"
            },
            "t_uint256": {
              "label": "uint256"
            },
            "t_mapping(t_address,t_mapping(t_address,t_uint256))": {
              "label": "mapping(address => mapping(address => uint256))"
            },
            "t_string_storage": {
              "label": "string"
            },
            "t_array(t_uint256)45_storage": {
              "label": "uint256[45]"
            }
          },
          "layoutVersion": "1.1"
        }
      },
      "IERC20Upgradeable": {
        "inherit": [],
        "libraries": [],
        "linkReferences": [],
        "errors": [],
        "layout": {
          "storage": [],
          "types": {},
          "layoutVersion": "1.1"
        }
      },
      "ERC20PausableUpgradeable": {
        "inherit": [
          "PausableUpgradeable",
          "ERC20Upgradeable",
          "IERC20Upgradeable",
          "ContextUpgradeable",
          "Initializable"
        ],
        "libraries": [],
        "linkReferences": [],
        "errors": [],
        "layout": {
          "storage": [
            {
              "contract": "ERC20PausableUpgradeable",
              "label": "__gap",
              "type": "t_array(t_uint256)50_storage",
              "src": "@openzeppelin/contracts-upgradeable/token/ERC20/extensions/ERC20PausableUpgradeable.sol:37"
            }
          ],
          "types": {
            "t_array(t_uint256)50_storage": {
              "label": "uint256[50]"
            },
            "t_uint256": {
              "label": "uint256"
            }
          },
          "layoutVersion": "1.1"
        }
      },
      "AddressUpgradeable": {
        "version": {
          "withMetadata": "95b82c0a9fb427aa390c09a048718c2b898c97960fbf1e423440153ca6da1ec5",
          "withoutMetadata": "08d24783a787f8a51dea0c166bb6f91a4f0865e02d03d749f102d332e6ead0ff",
          "linkedWithoutMetadata": "08d24783a787f8a51dea0c166bb6f91a4f0865e02d03d749f102d332e6ead0ff"
        },
        "inherit": [],
        "libraries": [],
        "linkReferences": [],
        "errors": [],
        "layout": {
          "storage": [],
          "types": {},
          "layoutVersion": "1.1"
        }
      },
      "ContextUpgradeable": {
        "inherit": [
          "Initializable"
        ],
        "libraries": [],
        "linkReferences": [],
        "errors": [],
        "layout": {
          "storage": [
            {
              "contract": "ContextUpgradeable",
              "label": "__gap",
              "type": "t_array(t_uint256)50_storage",
              "src": "@openzeppelin/contracts-upgradeable/utils/ContextUpgradeable.sol:31"
            }
          ],
          "types": {
            "t_array(t_uint256)50_storage": {
              "label": "uint256[50]"
            },
            "t_uint256": {
              "label": "uint256"
            }
          },
          "layoutVersion": "1.1"
        }
      },
      "SafeMathUpgradeable": {
        "version": {
          "withMetadata": "ad781e9d4aaee36db4170f7302ed0f3fff0bcde725a2483d01b1ac8296c92454",
          "withoutMetadata": "08d24783a787f8a51dea0c166bb6f91a4f0865e02d03d749f102d332e6ead0ff",
          "linkedWithoutMetadata": "08d24783a787f8a51dea0c166bb6f91a4f0865e02d03d749f102d332e6ead0ff"
        },
        "inherit": [],
        "libraries": [],
        "linkReferences": [],
        "errors": [],
        "layout": {
          "storage": [],
          "types": {},
          "layoutVersion": "1.1"
        }
      },
      "LockTokenV2": {
        "version": {
          "withMetadata": "f75aff36cbe1e04b507edd0c63869086f3d7a92277ad4b42aef2e191797c99e4",
          "withoutMetadata": "b29ae90cb6c2672e65c40d40b7be1556295da72e0a96ee02ca2ae1fd3189291c",
          "linkedWithoutMetadata": "b29ae90cb6c2672e65c40d40b7be1556295da72e0a96ee02ca2ae1fd3189291c"
        },
        "inherit": [
          "ERC20PausableUpgradeable",
          "PausableUpgradeable",
          "ERC20Upgradeable",
          "IERC20Upgradeable",
          "ContextUpgradeable",
          "Initializable"
        ],
        "libraries": [
          "SafeMathUpgradeable"
        ],
        "linkReferences": [],
        "errors": [],
        "layout": {
          "storage": [
            {
              "contract": "LockTokenV2",
              "label": "_lockAmounts",
              "type": "t_mapping(t_address,t_uint256)",
              "src": "contracts/LockTokenV2.sol:10"
            }
          ],
          "types": {
            "t_mapping(t_address,t_uint256)": {
              "label": "mapping(address => uint256)"
            },
            "t_address": {
              "label": "address"
            },
            "t_uint256": {
              "label": "uint256"
            }
          },
          "layoutVersion": "1.1"
        }
      }
    },
    {
      "Initializable": {
        "inherit": [],
        "libraries": [],
        "linkReferences": [],
        "errors": [],
        "layout": {
          "storage": [
            {
              "contract": "Initializable",
              "label": "_initialized",
              "type": "t_bool",
              "src": "@openzeppelin/contracts-upgradeable/proxy/utils/Initializable.sol:25"
            },
            {
              "contract": "Initializable",
              "label": "_initializing",
              "type": "t_bool",
              "src": "@openzeppelin/contracts-upgradeable/proxy/utils/Initializable.sol:30"
            }
          ],
          "types": {
            "t_bool": {
              "label": "bool"
            }
          },
          "layoutVersion": "1.1"
        }
      },
      "PausableUpgradeable": {
        "inherit": [
          "ContextUpgradeable",
          "Initializable"
        ],
        "libraries": [],
        "linkReferences": [],
        "errors": [],
        "layout": {
          "storage": [
            {
              "contract": "PausableUpgradeable",
              "label": "_paused",
              "type": "t_bool",
              "src": "@openzeppelin/contracts-upgradeable/security/PausableUpgradeable.sol:28"
            },
            {
              "contract": "PausableUpgradeable",
              "label": "__gap",
              "type": "t_array(t_uint256)49_storage",
              "src": "@openzeppelin/contracts-upgradeable/security/PausableUpgradeable.sol:96"
            }
          ],
          "types": {
            "t_bool": {
              "label": "bool"
            },
            "t_array(t_uint256)49_storage": {
              "label": "uint256[49]"
            },
            "t_uint256": {
              "label": "uint256"
            }
          },
          "layoutVersion": "1.1"
        }
      },
      "ERC20Upgradeable": {
        "version": {
          "withMetadata": "7be59a513f220c4d30078857646ad721da36b8a49f01274108e9c4eff576bc79",
          "withoutMetadata": "e179cb265cba6d38bf10f6da908e9f567873a5a933239b27cb690fe8642d7a4e",
          "linkedWithoutMetadata": "e179cb265cba6d38bf10f6da908e9f567873a5a933239b27cb690fe8642d7a4e"
        },
        "inherit": [
          "IERC20Upgradeable",
          "ContextUpgradeable",
          "Initializable"
        ],
        "libraries": [],
        "linkReferences": [],
        "errors": [],
        "layout": {
          "storage": [
            {
              "contract": "ERC20Upgradeable",
              "label": "_balances",
              "type": "t_mapping(t_address,t_uint256)",
              "src": "@openzeppelin/contracts-upgradeable/token/ERC20/ERC20Upgradeable.sol:34"
            },
            {
              "contract": "ERC20Upgradeable",
              "label": "_allowances",
              "type": "t_mapping(t_address,t_mapping(t_address,t_uint256))",
              "src": "@openzeppelin/contracts-upgradeable/token/ERC20/ERC20Upgradeable.sol:36"
            },
            {
              "contract": "ERC20Upgradeable",
              "label": "_totalSupply",
              "type": "t_uint256",
              "src": "@openzeppelin/contracts-upgradeable/token/ERC20/ERC20Upgradeable.sol:38"
            },
            {
              "contract": "ERC20Upgradeable",
              "label": "_name",
              "type": "t_string_storage",
              "src": "@openzeppelin/contracts-upgradeable/token/ERC20/ERC20Upgradeable.sol:40"
            },
            {
              "contract": "ERC20Upgradeable",
              "label": "_symbol",
              "type": "t_string_storage",
              "src": "@openzeppelin/contracts-upgradeable/token/ERC20/ERC20Upgradeable.sol:41"
            },
            {
              "contract": "ERC20Upgradeable",
              "label": "__gap",
              "type": "t_array(t_uint256)45_storage",
              "src": "@openzeppelin/contracts-upgradeable/token/ERC20/ERC20Upgradeable.sol:309"
            }
          ],
          "types": {
            "t_mapping(t_address,t_uint256)": {
              "label": "mapping(address => uint256)"
            },
            "t_address": {
              "label": "address"
            },
            "t_uint256": {
              "label": "uint256"
            },
            "t_mapping(t_address,t_mapping(t_address,t_uint256))": {
              "label": "mapping(address => mapping(address => uint256))"
            },
            "t_string_storage": {
              "label": "string"
            },
            "t_array(t_uint256)45_storage": {
              "label": "uint256[45]"
            }
          },
          "layoutVersion": "1.1"
        }
      },
      "IERC20Upgradeable": {
        "inherit": [],
        "libraries": [],
        "linkReferences": [],
        "errors": [],
        "layout": {
          "storage": [],
          "types": {},
          "layoutVersion": "1.1"
        }
      },
      "ERC20PausableUpgradeable": {
        "inherit": [
          "PausableUpgradeable",
          "ERC20Upgradeable",
          "IERC20Upgradeable",
          "ContextUpgradeable",
          "Initializable"
        ],
        "libraries": [],
        "linkReferences": [],
        "errors": [],
        "layout": {
          "storage": [
            {
              "contract": "ERC20PausableUpgradeable",
              "label": "__gap",
              "type": "t_array(t_uint256)50_storage",
              "src": "@openzeppelin/contracts-upgradeable/token/ERC20/extensions/ERC20PausableUpgradeable.sol:37"
            }
          ],
          "types": {
            "t_array(t_uint256)50_storage": {
              "label": "uint256[50]"
            },
            "t_uint256": {
              "label": "uint256"
            }
          },
          "layoutVersion": "1.1"
        }
      },
      "AddressUpgradeable": {
        "version": {
          "withMetadata": "95b82c0a9fb427aa390c09a048718c2b898c97960fbf1e423440153ca6da1ec5",
          "withoutMetadata": "08d24783a787f8a51dea0c166bb6f91a4f0865e02d03d749f102d332e6ead0ff",
          "linkedWithoutMetadata": "08d24783a787f8a51dea0c166bb6f91a4f0865e02d03d749f102d332e6ead0ff"
        },
        "inherit": [],
        "libraries": [],
        "linkReferences": [],
        "errors": [],
        "layout": {
          "storage": [],
          "types": {},
          "layoutVersion": "1.1"
        }
      },
      "ContextUpgradeable": {
        "inherit": [
          "Initializable"
        ],
        "libraries": [],
        "linkReferences": [],
        "errors": [],
        "layout": {
          "storage": [
            {
              "contract": "ContextUpgradeable",
              "label": "__gap",
              "type": "t_array(t_uint256)50_storage",
              "src": "@openzeppelin/contracts-upgradeable/utils/ContextUpgradeable.sol:31"
            }
          ],
          "types": {
            "t_array(t_uint256)50_storage": {
              "label": "uint256[50]"
            },
            "t_uint256": {
              "label": "uint256"
            }
          },
          "layoutVersion": "1.1"
        }
      },
      "SafeMathUpgradeable": {
        "version": {
          "withMetadata": "ad781e9d4aaee36db4170f7302ed0f3fff0bcde725a2483d01b1ac8296c92454",
          "withoutMetadata": "08d24783a787f8a51dea0c166bb6f91a4f0865e02d03d749f102d332e6ead0ff",
          "linkedWithoutMetadata": "08d24783a787f8a51dea0c166bb6f91a4f0865e02d03d749f102d332e6ead0ff"
        },
        "inherit": [],
        "libraries": [],
        "linkReferences": [],
        "errors": [],
        "layout": {
          "storage": [],
          "types": {},
          "layoutVersion": "1.1"
        }
      },
      "LockTokenV2": {
        "version": {
          "withMetadata": "6829ad28f5dd3f46440cec863254766b3ec0a037ae6eff4a948d26fd1ed8da6d",
          "withoutMetadata": "51135c4e8b8eda720ceb3a6726e1edb8bfc406afd872bdfa7d10abf9a6c94d10",
          "linkedWithoutMetadata": "51135c4e8b8eda720ceb3a6726e1edb8bfc406afd872bdfa7d10abf9a6c94d10"
        },
        "inherit": [
          "ERC20PausableUpgradeable",
          "PausableUpgradeable",
          "ERC20Upgradeable",
          "IERC20Upgradeable",
          "ContextUpgradeable",
          "Initializable"
        ],
        "libraries": [
          "SafeMathUpgradeable"
        ],
        "linkReferences": [],
        "errors": [],
        "layout": {
          "storage": [
            {
              "contract": "LockTokenV2",
              "label": "lockAmounts",
              "type": "t_mapping(t_address,t_uint256)",
              "src": "contracts/LockTokenV2.sol:10"
            }
          ],
          "types": {
            "t_mapping(t_address,t_uint256)": {
              "label": "mapping(address => uint256)"
            },
            "t_address": {
              "label": "address"
            },
            "t_uint256": {
              "label": "uint256"
            }
          },
          "layoutVersion": "1.1"
        }
      }
    },
    {
      "Initializable": {
        "inherit": [],
        "libraries": [],
        "linkReferences": [],
        "errors": [],
        "layout": {
          "storage": [
            {
              "contract": "Initializable",
              "label": "_initialized",
              "type": "t_bool",
              "src": "@openzeppelin/contracts-upgradeable/proxy/utils/Initializable.sol:25"
            },
            {
              "contract": "Initializable",
              "label": "_initializing",
              "type": "t_bool",
              "src": "@openzeppelin/contracts-upgradeable/proxy/utils/Initializable.sol:30"
            }
          ],
          "types": {
            "t_bool": {
              "label": "bool"
            }
          },
          "layoutVersion": "1.1"
        }
      },
      "PausableUpgradeable": {
        "inherit": [
          "ContextUpgradeable",
          "Initializable"
        ],
        "libraries": [],
        "linkReferences": [],
        "errors": [],
        "layout": {
          "storage": [
            {
              "contract": "PausableUpgradeable",
              "label": "_paused",
              "type": "t_bool",
              "src": "@openzeppelin/contracts-upgradeable/security/PausableUpgradeable.sol:28"
            },
            {
              "contract": "PausableUpgradeable",
              "label": "__gap",
              "type": "t_array(t_uint256)49_storage",
              "src": "@openzeppelin/contracts-upgradeable/security/PausableUpgradeable.sol:96"
            }
          ],
          "types": {
            "t_bool": {
              "label": "bool"
            },
            "t_array(t_uint256)49_storage": {
              "label": "uint256[49]"
            },
            "t_uint256": {
              "label": "uint256"
            }
          },
          "layoutVersion": "1.1"
        }
      },
      "ERC20Upgradeable": {
        "version": {
          "withMetadata": "7be59a513f220c4d30078857646ad721da36b8a49f01274108e9c4eff576bc79",
          "withoutMetadata": "e179cb265cba6d38bf10f6da908e9f567873a5a933239b27cb690fe8642d7a4e",
          "linkedWithoutMetadata": "e179cb265cba6d38bf10f6da908e9f567873a5a933239b27cb690fe8642d7a4e"
        },
        "inherit": [
          "IERC20Upgradeable",
          "ContextUpgradeable",
          "Initializable"
        ],
        "libraries": [],
        "linkReferences": [],
        "errors": [],
        "layout": {
          "storage": [
            {
              "contract": "ERC20Upgradeable",
              "label": "_balances",
              "type": "t_mapping(t_address,t_uint256)",
              "src": "@openzeppelin/contracts-upgradeable/token/ERC20/ERC20Upgradeable.sol:34"
            },
            {
              "contract": "ERC20Upgradeable",
              "label": "_allowances",
              "type": "t_mapping(t_address,t_mapping(t_address,t_uint256))",
              "src": "@openzeppelin/contracts-upgradeable/token/ERC20/ERC20Upgradeable.sol:36"
            },
            {
              "contract": "ERC20Upgradeable",
              "label": "_totalSupply",
              "type": "t_uint256",
              "src": "@openzeppelin/contracts-upgradeable/token/ERC20/ERC20Upgradeable.sol:38"
            },
            {
              "contract": "ERC20Upgradeable",
              "label": "_name",
              "type": "t_string_storage",
              "src": "@openzeppelin/contracts-upgradeable/token/ERC20/ERC20Upgradeable.sol:40"
            },
            {
              "contract": "ERC20Upgradeable",
              "label": "_symbol",
              "type": "t_string_storage",
              "src": "@openzeppelin/contracts-upgradeable/token/ERC20/ERC20Upgradeable.sol:41"
            },
            {
              "contract": "ERC20Upgradeable",
              "label": "__gap",
              "type": "t_array(t_uint256)45_storage",
              "src": "@openzeppelin/contracts-upgradeable/token/ERC20/ERC20Upgradeable.sol:309"
            }
          ],
          "types": {
            "t_mapping(t_address,t_uint256)": {
              "label": "mapping(address => uint256)"
            },
            "t_address": {
              "label": "address"
            },
            "t_uint256": {
              "label": "uint256"
            },
            "t_mapping(t_address,t_mapping(t_address,t_uint256))": {
              "label": "mapping(address => mapping(address => uint256))"
            },
            "t_string_storage": {
              "label": "string"
            },
            "t_array(t_uint256)45_storage": {
              "label": "uint256[45]"
            }
          },
          "layoutVersion": "1.1"
        }
      },
      "IERC20Upgradeable": {
        "inherit": [],
        "libraries": [],
        "linkReferences": [],
        "errors": [],
        "layout": {
          "storage": [],
          "types": {},
          "layoutVersion": "1.1"
        }
      },
      "ERC20PausableUpgradeable": {
        "inherit": [
          "PausableUpgradeable",
          "ERC20Upgradeable",
          "IERC20Upgradeable",
          "ContextUpgradeable",
          "Initializable"
        ],
        "libraries": [],
        "linkReferences": [],
        "errors": [],
        "layout": {
          "storage": [
            {
              "contract": "ERC20PausableUpgradeable",
              "label": "__gap",
              "type": "t_array(t_uint256)50_storage",
              "src": "@openzeppelin/contracts-upgradeable/token/ERC20/extensions/ERC20PausableUpgradeable.sol:37"
            }
          ],
          "types": {
            "t_array(t_uint256)50_storage": {
              "label": "uint256[50]"
            },
            "t_uint256": {
              "label": "uint256"
            }
          },
          "layoutVersion": "1.1"
        }
      },
      "AddressUpgradeable": {
        "version": {
          "withMetadata": "95b82c0a9fb427aa390c09a048718c2b898c97960fbf1e423440153ca6da1ec5",
          "withoutMetadata": "08d24783a787f8a51dea0c166bb6f91a4f0865e02d03d749f102d332e6ead0ff",
          "linkedWithoutMetadata": "08d24783a787f8a51dea0c166bb6f91a4f0865e02d03d749f102d332e6ead0ff"
        },
        "inherit": [],
        "libraries": [],
        "linkReferences": [],
        "errors": [],
        "layout": {
          "storage": [],
          "types": {},
          "layoutVersion": "1.1"
        }
      },
      "ContextUpgradeable": {
        "inherit": [
          "Initializable"
        ],
        "libraries": [],
        "linkReferences": [],
        "errors": [],
        "layout": {
          "storage": [
            {
              "contract": "ContextUpgradeable",
              "label": "__gap",
              "type": "t_array(t_uint256)50_storage",
              "src": "@openzeppelin/contracts-upgradeable/utils/ContextUpgradeable.sol:31"
            }
          ],
          "types": {
            "t_array(t_uint256)50_storage": {
              "label": "uint256[50]"
            },
            "t_uint256": {
              "label": "uint256"
            }
          },
          "layoutVersion": "1.1"
        }
      },
      "SafeMathUpgradeable": {
        "version": {
          "withMetadata": "ad781e9d4aaee36db4170f7302ed0f3fff0bcde725a2483d01b1ac8296c92454",
          "withoutMetadata": "08d24783a787f8a51dea0c166bb6f91a4f0865e02d03d749f102d332e6ead0ff",
          "linkedWithoutMetadata": "08d24783a787f8a51dea0c166bb6f91a4f0865e02d03d749f102d332e6ead0ff"
        },
        "inherit": [],
        "libraries": [],
        "linkReferences": [],
        "errors": [],
        "layout": {
          "storage": [],
          "types": {},
          "layoutVersion": "1.1"
        }
      },
      "LockToken": {
        "version": {
          "withMetadata": "f7ca4492cf9263350b3f546268b61ab7390b541de02c612027546d21a6882673",
          "withoutMetadata": "3ac62b243e215ac0d642ed54f69d49c4db6aba518ee21351f982fa727e5aa44f",
          "linkedWithoutMetadata": "3ac62b243e215ac0d642ed54f69d49c4db6aba518ee21351f982fa727e5aa44f"
        },
        "inherit": [
          "ERC20PausableUpgradeable",
          "PausableUpgradeable",
          "ERC20Upgradeable",
          "IERC20Upgradeable",
          "ContextUpgradeable",
          "Initializable"
        ],
        "libraries": [],
        "linkReferences": [],
        "errors": [],
        "layout": {
          "storage": [],
          "types": {},
          "layoutVersion": "1.1"
        }
      },
      "LockTokenV2": {
        "version": {
          "withMetadata": "d1e529e06568dc7db055ee44b571a7c86c0f8f4329612484c85152be963177a9",
          "withoutMetadata": "d33b9ceef9bcc6bbf40b55fe97900952f7730849f8c7279f87a13f49fa430f4c",
          "linkedWithoutMetadata": "d33b9ceef9bcc6bbf40b55fe97900952f7730849f8c7279f87a13f49fa430f4c"
        },
        "inherit": [
          "ERC20PausableUpgradeable",
          "PausableUpgradeable",
          "ERC20Upgradeable",
          "IERC20Upgradeable",
          "ContextUpgradeable",
          "Initializable"
        ],
        "libraries": [
          "SafeMathUpgradeable"
        ],
        "linkReferences": [],
        "errors": [],
        "layout": {
          "storage": [
            {
              "contract": "LockTokenV2",
              "label": "_lockAmounts",
              "type": "t_mapping(t_address,t_uint256)",
              "src": "contracts/LockTokenV2.sol:10"
            }
          ],
          "types": {
            "t_mapping(t_address,t_uint256)": {
              "label": "mapping(address => uint256)"
            },
            "t_address": {
              "label": "address"
            },
            "t_uint256": {
              "label": "uint256"
            }
          },
          "layoutVersion": "1.1"
        }
      }
    },
    {
      "Initializable": {
        "inherit": [],
        "libraries": [],
        "linkReferences": [],
        "errors": [],
        "layout": {
          "storage": [
            {
              "contract": "Initializable",
              "label": "_initialized",
              "type": "t_bool",
              "src": "@openzeppelin/contracts-upgradeable/proxy/utils/Initializable.sol:25"
            },
            {
              "contract": "Initializable",
              "label": "_initializing",
              "type": "t_bool",
              "src": "@openzeppelin/contracts-upgradeable/proxy/utils/Initializable.sol:30"
            }
          ],
          "types": {
            "t_bool": {
              "label": "bool"
            }
          },
          "layoutVersion": "1.1"
        }
      },
      "PausableUpgradeable": {
        "inherit": [
          "ContextUpgradeable",
          "Initializable"
        ],
        "libraries": [],
        "linkReferences": [],
        "errors": [],
        "layout": {
          "storage": [
            {
              "contract": "PausableUpgradeable",
              "label": "_paused",
              "type": "t_bool",
              "src": "@openzeppelin/contracts-upgradeable/security/PausableUpgradeable.sol:28"
            },
            {
              "contract": "PausableUpgradeable",
              "label": "__gap",
              "type": "t_array(t_uint256)49_storage",
              "src": "@openzeppelin/contracts-upgradeable/security/PausableUpgradeable.sol:96"
            }
          ],
          "types": {
            "t_bool": {
              "label": "bool"
            },
            "t_array(t_uint256)49_storage": {
              "label": "uint256[49]"
            },
            "t_uint256": {
              "label": "uint256"
            }
          },
          "layoutVersion": "1.1"
        }
      },
      "ERC20Upgradeable": {
        "version": {
          "withMetadata": "7be59a513f220c4d30078857646ad721da36b8a49f01274108e9c4eff576bc79",
          "withoutMetadata": "e179cb265cba6d38bf10f6da908e9f567873a5a933239b27cb690fe8642d7a4e",
          "linkedWithoutMetadata": "e179cb265cba6d38bf10f6da908e9f567873a5a933239b27cb690fe8642d7a4e"
        },
        "inherit": [
          "IERC20Upgradeable",
          "ContextUpgradeable",
          "Initializable"
        ],
        "libraries": [],
        "linkReferences": [],
        "errors": [],
        "layout": {
          "storage": [
            {
              "contract": "ERC20Upgradeable",
              "label": "_balances",
              "type": "t_mapping(t_address,t_uint256)",
              "src": "@openzeppelin/contracts-upgradeable/token/ERC20/ERC20Upgradeable.sol:34"
            },
            {
              "contract": "ERC20Upgradeable",
              "label": "_allowances",
              "type": "t_mapping(t_address,t_mapping(t_address,t_uint256))",
              "src": "@openzeppelin/contracts-upgradeable/token/ERC20/ERC20Upgradeable.sol:36"
            },
            {
              "contract": "ERC20Upgradeable",
              "label": "_totalSupply",
              "type": "t_uint256",
              "src": "@openzeppelin/contracts-upgradeable/token/ERC20/ERC20Upgradeable.sol:38"
            },
            {
              "contract": "ERC20Upgradeable",
              "label": "_name",
              "type": "t_string_storage",
              "src": "@openzeppelin/contracts-upgradeable/token/ERC20/ERC20Upgradeable.sol:40"
            },
            {
              "contract": "ERC20Upgradeable",
              "label": "_symbol",
              "type": "t_string_storage",
              "src": "@openzeppelin/contracts-upgradeable/token/ERC20/ERC20Upgradeable.sol:41"
            },
            {
              "contract": "ERC20Upgradeable",
              "label": "__gap",
              "type": "t_array(t_uint256)45_storage",
              "src": "@openzeppelin/contracts-upgradeable/token/ERC20/ERC20Upgradeable.sol:309"
            }
          ],
          "types": {
            "t_mapping(t_address,t_uint256)": {
              "label": "mapping(address => uint256)"
            },
            "t_address": {
              "label": "address"
            },
            "t_uint256": {
              "label": "uint256"
            },
            "t_mapping(t_address,t_mapping(t_address,t_uint256))": {
              "label": "mapping(address => mapping(address => uint256))"
            },
            "t_string_storage": {
              "label": "string"
            },
            "t_array(t_uint256)45_storage": {
              "label": "uint256[45]"
            }
          },
          "layoutVersion": "1.1"
        }
      },
      "IERC20Upgradeable": {
        "inherit": [],
        "libraries": [],
        "linkReferences": [],
        "errors": [],
        "layout": {
          "storage": [],
          "types": {},
          "layoutVersion": "1.1"
        }
      },
      "ERC20PausableUpgradeable": {
        "inherit": [
          "PausableUpgradeable",
          "ERC20Upgradeable",
          "IERC20Upgradeable",
          "ContextUpgradeable",
          "Initializable"
        ],
        "libraries": [],
        "linkReferences": [],
        "errors": [],
        "layout": {
          "storage": [
            {
              "contract": "ERC20PausableUpgradeable",
              "label": "__gap",
              "type": "t_array(t_uint256)50_storage",
              "src": "@openzeppelin/contracts-upgradeable/token/ERC20/extensions/ERC20PausableUpgradeable.sol:37"
            }
          ],
          "types": {
            "t_array(t_uint256)50_storage": {
              "label": "uint256[50]"
            },
            "t_uint256": {
              "label": "uint256"
            }
          },
          "layoutVersion": "1.1"
        }
      },
      "AddressUpgradeable": {
        "version": {
          "withMetadata": "95b82c0a9fb427aa390c09a048718c2b898c97960fbf1e423440153ca6da1ec5",
          "withoutMetadata": "08d24783a787f8a51dea0c166bb6f91a4f0865e02d03d749f102d332e6ead0ff",
          "linkedWithoutMetadata": "08d24783a787f8a51dea0c166bb6f91a4f0865e02d03d749f102d332e6ead0ff"
        },
        "inherit": [],
        "libraries": [],
        "linkReferences": [],
        "errors": [],
        "layout": {
          "storage": [],
          "types": {},
          "layoutVersion": "1.1"
        }
      },
      "ContextUpgradeable": {
        "inherit": [
          "Initializable"
        ],
        "libraries": [],
        "linkReferences": [],
        "errors": [],
        "layout": {
          "storage": [
            {
              "contract": "ContextUpgradeable",
              "label": "__gap",
              "type": "t_array(t_uint256)50_storage",
              "src": "@openzeppelin/contracts-upgradeable/utils/ContextUpgradeable.sol:31"
            }
          ],
          "types": {
            "t_array(t_uint256)50_storage": {
              "label": "uint256[50]"
            },
            "t_uint256": {
              "label": "uint256"
            }
          },
          "layoutVersion": "1.1"
        }
      },
      "SafeMathUpgradeable": {
        "version": {
          "withMetadata": "ad781e9d4aaee36db4170f7302ed0f3fff0bcde725a2483d01b1ac8296c92454",
          "withoutMetadata": "08d24783a787f8a51dea0c166bb6f91a4f0865e02d03d749f102d332e6ead0ff",
          "linkedWithoutMetadata": "08d24783a787f8a51dea0c166bb6f91a4f0865e02d03d749f102d332e6ead0ff"
        },
        "inherit": [],
        "libraries": [],
        "linkReferences": [],
        "errors": [],
        "layout": {
          "storage": [],
          "types": {},
          "layoutVersion": "1.1"
        }
      },
      "LockTokenV2": {
        "version": {
          "withMetadata": "bbb8d7059c6edaa5a8674ae9f7e7e89268faf6321132b0a1e6ab548ad762280e",
          "withoutMetadata": "d33b9ceef9bcc6bbf40b55fe97900952f7730849f8c7279f87a13f49fa430f4c",
          "linkedWithoutMetadata": "d33b9ceef9bcc6bbf40b55fe97900952f7730849f8c7279f87a13f49fa430f4c"
        },
        "inherit": [
          "ERC20PausableUpgradeable",
          "PausableUpgradeable",
          "ERC20Upgradeable",
          "IERC20Upgradeable",
          "ContextUpgradeable",
          "Initializable"
        ],
        "libraries": [
          "SafeMathUpgradeable"
        ],
        "linkReferences": [],
        "errors": [],
        "layout": {
          "storage": [
            {
              "contract": "LockTokenV2",
              "label": "_lockAmounts",
              "type": "t_mapping(t_address,t_uint256)",
              "src": "contracts/LockTokenV2.sol:10"
            }
          ],
          "types": {
            "t_mapping(t_address,t_uint256)": {
              "label": "mapping(address => uint256)"
            },
            "t_address": {
              "label": "address"
            },
            "t_uint256": {
              "label": "uint256"
            }
          },
          "layoutVersion": "1.1"
        }
      }
    },
    {
      "Initializable": {
        "inherit": [],
        "libraries": [],
        "linkReferences": [],
        "errors": [],
        "layout": {
          "storage": [
            {
              "contract": "Initializable",
              "label": "_initialized",
              "type": "t_bool",
              "src": "@openzeppelin/contracts-upgradeable/proxy/utils/Initializable.sol:25"
            },
            {
              "contract": "Initializable",
              "label": "_initializing",
              "type": "t_bool",
              "src": "@openzeppelin/contracts-upgradeable/proxy/utils/Initializable.sol:30"
            }
          ],
          "types": {
            "t_bool": {
              "label": "bool"
            }
          },
          "layoutVersion": "1.1"
        }
      },
      "PausableUpgradeable": {
        "inherit": [
          "ContextUpgradeable",
          "Initializable"
        ],
        "libraries": [],
        "linkReferences": [],
        "errors": [],
        "layout": {
          "storage": [
            {
              "contract": "PausableUpgradeable",
              "label": "_paused",
              "type": "t_bool",
              "src": "@openzeppelin/contracts-upgradeable/security/PausableUpgradeable.sol:28"
            },
            {
              "contract": "PausableUpgradeable",
              "label": "__gap",
              "type": "t_array(t_uint256)49_storage",
              "src": "@openzeppelin/contracts-upgradeable/security/PausableUpgradeable.sol:96"
            }
          ],
          "types": {
            "t_bool": {
              "label": "bool"
            },
            "t_array(t_uint256)49_storage": {
              "label": "uint256[49]"
            },
            "t_uint256": {
              "label": "uint256"
            }
          },
          "layoutVersion": "1.1"
        }
      },
      "ERC20Upgradeable": {
        "version": {
          "withMetadata": "7be59a513f220c4d30078857646ad721da36b8a49f01274108e9c4eff576bc79",
          "withoutMetadata": "e179cb265cba6d38bf10f6da908e9f567873a5a933239b27cb690fe8642d7a4e",
          "linkedWithoutMetadata": "e179cb265cba6d38bf10f6da908e9f567873a5a933239b27cb690fe8642d7a4e"
        },
        "inherit": [
          "IERC20Upgradeable",
          "ContextUpgradeable",
          "Initializable"
        ],
        "libraries": [],
        "linkReferences": [],
        "errors": [],
        "layout": {
          "storage": [
            {
              "contract": "ERC20Upgradeable",
              "label": "_balances",
              "type": "t_mapping(t_address,t_uint256)",
              "src": "@openzeppelin/contracts-upgradeable/token/ERC20/ERC20Upgradeable.sol:34"
            },
            {
              "contract": "ERC20Upgradeable",
              "label": "_allowances",
              "type": "t_mapping(t_address,t_mapping(t_address,t_uint256))",
              "src": "@openzeppelin/contracts-upgradeable/token/ERC20/ERC20Upgradeable.sol:36"
            },
            {
              "contract": "ERC20Upgradeable",
              "label": "_totalSupply",
              "type": "t_uint256",
              "src": "@openzeppelin/contracts-upgradeable/token/ERC20/ERC20Upgradeable.sol:38"
            },
            {
              "contract": "ERC20Upgradeable",
              "label": "_name",
              "type": "t_string_storage",
              "src": "@openzeppelin/contracts-upgradeable/token/ERC20/ERC20Upgradeable.sol:40"
            },
            {
              "contract": "ERC20Upgradeable",
              "label": "_symbol",
              "type": "t_string_storage",
              "src": "@openzeppelin/contracts-upgradeable/token/ERC20/ERC20Upgradeable.sol:41"
            },
            {
              "contract": "ERC20Upgradeable",
              "label": "__gap",
              "type": "t_array(t_uint256)45_storage",
              "src": "@openzeppelin/contracts-upgradeable/token/ERC20/ERC20Upgradeable.sol:309"
            }
          ],
          "types": {
            "t_mapping(t_address,t_uint256)": {
              "label": "mapping(address => uint256)"
            },
            "t_address": {
              "label": "address"
            },
            "t_uint256": {
              "label": "uint256"
            },
            "t_mapping(t_address,t_mapping(t_address,t_uint256))": {
              "label": "mapping(address => mapping(address => uint256))"
            },
            "t_string_storage": {
              "label": "string"
            },
            "t_array(t_uint256)45_storage": {
              "label": "uint256[45]"
            }
          },
          "layoutVersion": "1.1"
        }
      },
      "IERC20Upgradeable": {
        "inherit": [],
        "libraries": [],
        "linkReferences": [],
        "errors": [],
        "layout": {
          "storage": [],
          "types": {},
          "layoutVersion": "1.1"
        }
      },
      "ERC20PausableUpgradeable": {
        "inherit": [
          "PausableUpgradeable",
          "ERC20Upgradeable",
          "IERC20Upgradeable",
          "ContextUpgradeable",
          "Initializable"
        ],
        "libraries": [],
        "linkReferences": [],
        "errors": [],
        "layout": {
          "storage": [
            {
              "contract": "ERC20PausableUpgradeable",
              "label": "__gap",
              "type": "t_array(t_uint256)50_storage",
              "src": "@openzeppelin/contracts-upgradeable/token/ERC20/extensions/ERC20PausableUpgradeable.sol:37"
            }
          ],
          "types": {
            "t_array(t_uint256)50_storage": {
              "label": "uint256[50]"
            },
            "t_uint256": {
              "label": "uint256"
            }
          },
          "layoutVersion": "1.1"
        }
      },
      "AddressUpgradeable": {
        "version": {
          "withMetadata": "95b82c0a9fb427aa390c09a048718c2b898c97960fbf1e423440153ca6da1ec5",
          "withoutMetadata": "08d24783a787f8a51dea0c166bb6f91a4f0865e02d03d749f102d332e6ead0ff",
          "linkedWithoutMetadata": "08d24783a787f8a51dea0c166bb6f91a4f0865e02d03d749f102d332e6ead0ff"
        },
        "inherit": [],
        "libraries": [],
        "linkReferences": [],
        "errors": [],
        "layout": {
          "storage": [],
          "types": {},
          "layoutVersion": "1.1"
        }
      },
      "ContextUpgradeable": {
        "inherit": [
          "Initializable"
        ],
        "libraries": [],
        "linkReferences": [],
        "errors": [],
        "layout": {
          "storage": [
            {
              "contract": "ContextUpgradeable",
              "label": "__gap",
              "type": "t_array(t_uint256)50_storage",
              "src": "@openzeppelin/contracts-upgradeable/utils/ContextUpgradeable.sol:31"
            }
          ],
          "types": {
            "t_array(t_uint256)50_storage": {
              "label": "uint256[50]"
            },
            "t_uint256": {
              "label": "uint256"
            }
          },
          "layoutVersion": "1.1"
        }
      },
      "LockToken": {
        "version": {
          "withMetadata": "41aeebbed86754534429e155bf2c8b3b82c4bda181e3ebbc2505cfc5023d5ab2",
          "withoutMetadata": "75704d426b89fc41e456fb77ddadd5cdf72697b07716675519e6a4c1bbc72986",
          "linkedWithoutMetadata": "75704d426b89fc41e456fb77ddadd5cdf72697b07716675519e6a4c1bbc72986"
        },
        "inherit": [
          "ERC20PausableUpgradeable",
          "PausableUpgradeable",
          "ERC20Upgradeable",
          "IERC20Upgradeable",
          "ContextUpgradeable",
          "Initializable"
        ],
        "libraries": [],
        "linkReferences": [],
        "errors": [],
        "layout": {
          "storage": [],
          "types": {},
          "layoutVersion": "1.1"
        }
      }
    }
  ]
}