{
  "_format": "hh-sol-artifact-1",
  "contractName": "SafeMath",
  "sourceName": "contracts/SafeMath.sol",
  "abi": [],
  "bytecode": "0x60556023600b82828239805160001a607314601657fe5b30600052607381538281f3fe73000000000000000000000000000000000000000030146080604052600080fdfea265627a7a72315820b738ae8aa345b08fd7a8afa32018ca0d3317eb1b10a25dafdbe54de7c3f7313f64736f6c63430005100032",
  "deployedBytecode": "0x73000000000000000000000000000000000000000030146080604052600080fdfea265627a7a72315820b738ae8aa345b08fd7a8afa32018ca0d3317eb1b10a25dafdbe54de7c3f7313f64736f6c63430005100032",
  "linkReferences": {},
  "deployedLinkReferences": {}
}
